<?xml version="1.0" encoding="UTF-8"?>
<svg width="154px" height="38px" viewBox="0 0 154 38" version="1.1" xmlns="http://www.w3.org/2000/svg" xmlns:xlink="http://www.w3.org/1999/xlink">
    <title>logo copy 2</title>
    <g id="HOME" stroke="none" stroke-width="1" fill="none" fill-rule="evenodd">
        <g id="Desktop-HD" transform="translate(-70.000000, -57.000000)" fill="#FFFFFF" fill-rule="nonzero">
            <g id="logo-copy-2" transform="translate(70.000000, 57.000000)">
                <path d="M3.43966636,12.3535581 L3.43966636,6.98801498 C3.43966636,5.02397004 5.0381835,3.42996255 7.00778499,3.42996255 L12.4027804,3.42996255 L12.4027804,10.6599251 L15.8424467,10.6599251 L15.8424467,0 L7.00778499,0 C3.13994439,0 0,3.13108614 0,6.98801498 L0,15.7835206 L24.7912882,15.7835206 L24.7912882,21.1632959 C24.7912882,23.1273408 23.1927711,24.7213483 21.2231696,24.7213483 L15.8281742,24.7213483 L15.8281742,17.4913858 L12.3885079,17.4913858 L12.3885079,28.1370787 L21.2088971,28.1370787 C25.0767377,28.1370787 28.2166821,25.0059925 28.2166821,21.1490637 L28.2166821,12.3535581 L3.43966636,12.3535581 Z" id="Path"></path>
                <g id="Group" transform="translate(35.253012, 0.000000)">
                    <path d="M4.03911029,2.23445693 C2.82594995,3.72883895 2.22650602,5.87790262 2.22650602,8.71011236 L2.22650602,10.2044944 L0,10.2044944 L0,15.1003745 L2.22650602,15.1003745 L2.22650602,28.1513109 L7.79277108,28.1513109 L7.79277108,15.1003745 L12.2743281,15.1003745 L12.2743281,10.2044944 L7.79277108,10.2044944 L7.79277108,8.25468165 C7.79277108,5.86367041 8.64911956,4.66816479 10.347544,4.66816479 C10.9755329,4.66816479 11.8033364,4.85318352 12.8309546,5.22322097 L12.8594995,0.754307116 C11.460797,0.256179775 10.1762743,0 8.99165894,0 C6.90787766,0 5.25227062,0.740074906 4.03911029,2.23445693 Z" id="Path"></path>
                    <rect id="Rectangle" x="15.0574606" y="10.2044944" width="5.65189991" height="17.9325843"></rect>
                    <path d="M17.8691381,0.0711610487 C16.9699722,0.0711610487 16.2563485,0.355805243 15.7282669,0.925093633 C15.2001854,1.49438202 14.9290083,2.24868914 14.9290083,3.20224719 C14.9290083,4.11310861 15.2001854,4.88164794 15.7568119,5.47940075 C16.3134384,6.09138577 17.0127896,6.39026217 17.8691381,6.39026217 C18.768304,6.39026217 19.4819277,6.07715356 20.0242817,5.45093633 C20.5666358,4.8247191 20.8378128,4.07041199 20.8378128,3.20224719 C20.8378128,2.26292135 20.5666358,1.50861423 20.0242817,0.939325843 C19.4819277,0.355805243 18.7540315,0.0711610487 17.8691381,0.0711610487 Z" id="Path"></path>
                    <path d="M35.7382762,9.72059925 C33.6402224,9.72059925 31.7419833,10.6314607 30.0435589,12.4531835 L29.1301205,10.2044944 L24.6200185,10.2044944 L24.6200185,28.1370787 L30.4717331,28.1370787 L30.4717331,17.0786517 C31.1710843,16.3812734 31.8561631,15.8546816 32.5269694,15.5131086 C33.1977757,15.1715356 33.7972196,14.9865169 34.2967563,14.9865169 C35.0817424,14.9865169 35.6240964,15.2426966 35.9380908,15.7692884 C36.2378128,16.2958801 36.39481,17.0501873 36.39481,18.0464419 L36.3234476,28.1228464 L42.2465246,28.1228464 L42.2465246,16.964794 C42.2465246,14.4029963 41.6470806,12.552809 40.4339203,11.4 C39.22076,10.2898876 37.6650602,9.72059925 35.7382762,9.72059925 Z" id="Path"></path>
                    <path d="M52.908063,23.411985 C52.3799815,23.411985 51.9803522,23.2696629 51.7091752,22.9850187 C51.4379981,22.7003745 51.2952734,22.2307116 51.2952734,21.57603 L51.2952734,0.853932584 L45.6433735,0.853932584 L45.6433735,22.2449438 C45.6148285,24.4224719 46.0572753,26.0022472 46.9421687,27.0127341 C47.8270621,28.0089888 49.0402224,28.5071161 50.5816497,28.5071161 C51.7805375,28.5071161 53.1078777,28.2367041 54.5779425,27.6958801 L53.7215941,23.3265918 C53.4361446,23.3835206 53.1649676,23.411985 52.908063,23.411985 Z" id="Path"></path>
                    <path d="M70.4632067,10.859176 C68.9788693,10.0764045 67.3089898,9.69213483 65.4535681,9.69213483 C63.583874,9.69213483 61.899722,10.0764045 60.4153846,10.8449438 C58.9310473,11.6134831 57.7749768,12.7235955 56.9329008,14.1752809 C56.0908248,15.6269663 55.6769231,17.306367 55.6769231,19.2134831 C55.6769231,21.1205993 56.0908248,22.8 56.9329008,24.223221 C57.7749768,25.6464419 58.9310473,26.7423221 60.4153846,27.5108614 C61.899722,28.2794007 63.583874,28.6636704 65.4535681,28.6636704 C67.6372567,28.6636704 69.4641335,28.2082397 70.9341983,27.2973783 C72.4042632,26.3865169 73.4889713,25.2052434 74.1883225,23.7535581 C74.8876738,22.3018727 75.2302132,20.7932584 75.2302132,19.1992509 C75.2302132,17.306367 74.8020389,15.6411985 73.9599629,14.1895131 C73.1178869,12.7520599 71.947544,11.6419476 70.4632067,10.859176 Z M68.4079703,22.3730337 C67.7514365,23.2838951 66.7666358,23.7393258 65.4678406,23.7393258 C64.1405005,23.7393258 63.1556997,23.2838951 62.5134384,22.3872659 C61.871177,21.4906367 61.5429101,20.423221 61.5429101,19.2134831 C61.5429101,17.9752809 61.871177,16.893633 62.5134384,15.9827715 C63.1556997,15.0719101 64.1405005,14.6164794 65.4678406,14.6164794 C66.7809082,14.6164794 67.7514365,15.0719101 68.4079703,15.9827715 C69.0645042,16.893633 69.3927711,17.9752809 69.3927711,19.2134831 C69.3784986,20.4089888 69.0502317,21.4621723 68.4079703,22.3730337 Z" id="Shape"></path>
                    <path d="M91.7720111,10.859176 C90.2876738,10.0764045 88.6177943,9.69213483 86.7623726,9.69213483 C84.8926784,9.69213483 83.2085264,10.0764045 81.7241891,10.8449438 C80.2398517,11.6134831 79.0837813,12.7235955 78.2417053,14.1752809 C77.3996293,15.6269663 76.9857275,17.306367 76.9857275,19.2134831 C76.9857275,21.1205993 77.3996293,22.8 78.2417053,24.223221 C79.0837813,25.6464419 80.2398517,26.7423221 81.7241891,27.5108614 C83.2085264,28.2794007 84.8926784,28.6636704 86.7623726,28.6636704 C88.9460612,28.6636704 90.7729379,28.2082397 92.2430028,27.2973783 C93.7130677,26.3865169 94.7977757,25.2052434 95.497127,23.7535581 C96.1964782,22.3018727 96.5390176,20.7932584 96.5390176,19.1992509 C96.5390176,17.306367 96.1108434,15.6411985 95.2687674,14.1895131 C94.4124189,12.7520599 93.2563485,11.6419476 91.7720111,10.859176 Z M89.7167748,22.3730337 C89.060241,23.2838951 88.0754402,23.7393258 86.776645,23.7393258 C85.4493049,23.7393258 84.4645042,23.2838951 83.8222428,22.3872659 C83.1799815,21.4906367 82.8517146,20.423221 82.8517146,19.2134831 C82.8517146,17.9752809 83.165709,16.893633 83.8222428,15.9827715 C84.4645042,15.0719101 85.4493049,14.6164794 86.776645,14.6164794 C88.0897127,14.6164794 89.060241,15.0719101 89.7167748,15.9827715 C90.3733086,16.893633 90.7015755,17.9752809 90.7015755,19.2134831 C90.6873031,20.4089888 90.3590361,21.4621723 89.7167748,22.3730337 Z" id="Shape"></path>
                    <path d="M117.71937,14.2891386 C117.034291,12.8516854 116.063763,11.7273408 114.807785,10.9161049 C113.551807,10.1048689 112.110287,9.69213483 110.468953,9.69213483 C107.85709,9.69213483 105.830399,10.7310861 104.417424,12.823221 L103.404078,10.2187266 L99.2793327,10.2187266 L99.2793327,37.9430712 L104.845598,37.9430712 L104.845598,26.329588 C106.13012,27.8951311 107.956997,28.6779026 110.311956,28.6779026 C112.053197,28.6779026 113.56608,28.2651685 114.822057,27.4539326 C116.092308,26.6426966 117.062836,25.5183521 117.733642,24.0951311 C118.404449,22.6719101 118.746988,21.0494382 118.746988,19.2134831 C118.746988,17.3632959 118.404449,15.7265918 117.71937,14.2891386 Z M111.8962,22.4014981 C111.125487,23.2269663 110.140686,23.6397004 108.941798,23.6397004 C107.771455,23.6397004 106.786654,23.2269663 106.015941,22.4157303 C105.245227,21.6044944 104.85987,20.5228464 104.85987,19.1707865 C104.85987,17.847191 105.245227,16.7655431 106.001668,15.9400749 C106.758109,15.1146067 107.74291,14.7018727 108.941798,14.7018727 C110.140686,14.7018727 111.125487,15.1146067 111.8962,15.9400749 C112.666914,16.7655431 113.052271,17.847191 113.052271,19.1707865 C113.052271,20.5086142 112.666914,21.57603 111.8962,22.4014981 Z" id="Shape"></path>
                </g>
            </g>
        </g>
    </g>
</svg>