<?xml version="1.0" encoding="UTF-8"?>
<svg width="22px" height="22px" viewBox="0 0 22 22" version="1.1" xmlns="http://www.w3.org/2000/svg" xmlns:xlink="http://www.w3.org/1999/xlink">
    <title>Group 8</title>
    <defs>
        <linearGradient x1="2.10951158%" y1="50%" x2="100%" y2="50%" id="linearGradient-1">
            <stop stop-color="#F25E6B" offset="0%"></stop>
            <stop stop-color="#F78F1F" offset="100%"></stop>
        </linearGradient>
    </defs>
    <g id="HOME" stroke="none" stroke-width="1" fill="none" fill-rule="evenodd">
        <g id="Desktop-HD" transform="translate(-495.000000, -7934.000000)">
            <g id="Group-8" transform="translate(496.000000, 7935.000000)">
                <circle id="Oval" stroke="url(#linearGradient-1)" fill="url(#linearGradient-1)" cx="10" cy="10" r="10"></circle>
                <g id="Group-7" transform="translate(5.000000, 5.000000)" stroke="#FFFFFF" stroke-linecap="round" stroke-linejoin="round">
                    <line x1="0" y1="5" x2="10" y2="5" id="Path-4"></line>
                    <polyline id="Path-5" points="5 0 10 5 5 10"></polyline>
                </g>
            </g>
        </g>
    </g>
</svg>