<?xml version="1.0" encoding="UTF-8"?>
<svg width="99px" height="30px" viewBox="0 0 99 30" version="1.1" xmlns="http://www.w3.org/2000/svg" xmlns:xlink="http://www.w3.org/1999/xlink">
    <title>Group 4</title>
    <defs>
        <linearGradient x1="0%" y1="0.235168098%" x2="100%" y2="99.7648319%" id="linearGradient-1">
            <stop stop-color="#5955D9" offset="0%"></stop>
            <stop stop-color="#421B9B" offset="100%"></stop>
        </linearGradient>
    </defs>
    <g id="HOME" stroke="none" stroke-width="1" fill="none" fill-rule="evenodd">
        <g id="Desktop-HD" transform="translate(-502.000000, -3074.000000)">
            <g id="Group-4" transform="translate(502.100505, 3074.000000)">
                <path d="M96.1746212,0 C97.2791907,-2.02906125e-16 98.1746212,0.8954305 98.1746212,2 L98.1746212,28 C98.1746212,29.1045695 97.2791907,30 96.1746212,30 L9.4246212,30 C8.3200517,30 7.4246212,29.1045695 7.4246212,28 L7.4246212,22.4246212 L-2.89990254e-13,15 L7.4246212,7.5753788 L7.4246212,2 C7.4246212,0.8954305 8.3200517,2.02906125e-16 9.4246212,0 L96.1746212,0 Z" id="Combined-Shape" fill="#D9D6F2"></path>
                <g id="Group-23" transform="translate(16.424621, 14.250000)" fill-rule="nonzero">
                    <path d="M43.304839,9.75 L43.6825268,7.59015685 C43.8645917,7.93665575 44.1783632,8.1099052 44.6238412,8.1099052 C44.9802236,8.1099052 45.2978687,8.02135548 45.5767767,7.84425604 C45.8556847,7.66715661 46.0716446,7.42556987 46.2246566,7.11949584 C46.3776686,6.81342181 46.4541746,6.47366039 46.4541746,6.10021158 C46.4541746,5.69596286 46.3466789,5.36967639 46.1316873,5.12135218 C45.9166958,4.87302797 45.6155139,4.74886586 45.2281417,4.74886586 C44.7478003,4.74886586 44.3526807,4.92404031 44.0427829,5.27438919 L44.0427829,5.27438919 L43.9730559,4.84126557 L43.3397025,4.84126557 L42.4739257,9.75 L43.304839,9.75 Z M44.5657354,7.35915758 C44.3526807,7.35915758 44.1841738,7.2917828 44.0602147,7.15703322 C43.9362556,7.02228365 43.874276,6.84133422 43.874276,6.61418495 C43.874276,6.57183508 43.8781498,6.51216027 43.8858972,6.43516051 L43.8858972,6.43516051 L43.903329,6.32543586 C43.9575611,6.07903664 44.0737727,5.87979977 44.2519639,5.72772526 C44.4301551,5.57565074 44.6432098,5.49961348 44.891128,5.49961348 C45.1041827,5.49961348 45.273658,5.56795076 45.3995539,5.70462533 C45.5254499,5.8412999 45.5883979,6.02513681 45.5883979,6.25613608 C45.5883979,6.46788541 45.5438501,6.65749731 45.4547545,6.82497178 C45.3656589,6.99244625 45.2426682,7.12334583 45.0857825,7.21767053 C44.9288968,7.31199523 44.7555477,7.35915758 44.5657354,7.35915758 Z M48.1392435,8.1099052 C48.6350799,8.1099052 49.0301995,7.92703078 49.3246024,7.56128194 C49.3478447,7.73453139 49.413698,7.86254349 49.5221622,7.94531822 C49.6306264,8.02809296 49.7739541,8.06948033 49.9521453,8.06948033 C50.1264627,8.06948033 50.3414543,8.02713046 50.5971199,7.94243073 L50.5971199,7.94243073 L50.5854987,7.30718275 C50.484782,7.3225827 50.4208656,7.33028267 50.3937495,7.33028267 C50.3201488,7.33028267 50.2659167,7.31488272 50.2310532,7.28408282 C50.1961897,7.25328292 50.178758,7.20323308 50.178758,7.1339333 C50.178758,7.08388346 50.1826317,7.04345858 50.1903791,7.01265868 L50.1903791,7.01265868 L50.568067,4.84126557 L49.7371537,4.84126557 L49.649995,5.33791399 C49.4718038,4.94521524 49.1367269,4.74886586 48.6447642,4.74886586 C48.327119,4.74886586 48.0346531,4.83645308 47.7673663,5.01162753 C47.5000795,5.18680197 47.2889617,5.42838871 47.1340128,5.73638773 C46.9790639,6.04438675 46.9015895,6.38896066 46.9015895,6.77010945 C46.9015895,7.17435817 47.0110221,7.49871964 47.2298874,7.74319386 C47.4487527,7.98766809 47.7518714,8.1099052 48.1392435,8.1099052 Z M48.4646362,7.35915758 C48.2477078,7.35915758 48.0782324,7.2917828 47.9562102,7.15703322 C47.834188,7.02228365 47.7731769,6.83940923 47.7731769,6.60840996 C47.7731769,6.40051062 47.8157878,6.21186122 47.9010097,6.04246176 C47.9862315,5.8730623 48.1053485,5.74023772 48.2583605,5.64398802 C48.4113725,5.54773833 48.5866584,5.49961348 48.7842182,5.49961348 C49.0050203,5.49961348 49.1754641,5.56602577 49.2955495,5.69885035 C49.4156348,5.83167493 49.4756775,6.01358685 49.4756775,6.24458612 C49.4756775,6.28693598 49.4737406,6.31773589 49.4698669,6.33698582 L49.4698669,6.33698582 L49.4233823,6.63150989 C49.357529,6.85480918 49.2384121,7.03190862 49.0660314,7.16280821 C48.8936508,7.29370779 48.6931857,7.35915758 48.4646362,7.35915758 Z M52.0090914,8.01750549 L52.2589465,6.63150989 L52.2589465,6.60840996 L52.29381,6.41206059 C52.3519158,6.19646127 52.4448851,6.00588687 52.5727179,5.8403374 C52.7005508,5.67478792 52.849689,5.59201319 53.0201328,5.59201319 C53.1440919,5.59201319 53.2661141,5.63051306 53.3861995,5.70751282 L53.3861995,5.70751282 L53.9091519,4.93366527 C53.8200563,4.88361543 53.727087,4.84030307 53.6302439,4.80372819 C53.5334009,4.7671533 53.4229998,4.74886586 53.2990407,4.74886586 C52.9736481,4.74886586 52.6908665,4.92211531 52.4506957,5.26861421 L52.4506957,5.26861421 L52.3751581,4.84126557 L51.7359941,4.84126557 L51.1781782,8.01750549 L52.0090914,8.01750549 Z M55.3501763,8.1099052 C55.5477361,8.1099052 55.7666014,8.07140532 56.0067722,7.99440557 L56.0067722,7.99440557 L56.1404156,7.31873271 C55.938982,7.38033252 55.7743489,7.41113242 55.646516,7.41113242 C55.3598606,7.41113242 55.2165329,7.2590579 55.2165329,6.95490886 C55.2165329,6.87405912 55.2242804,6.79320938 55.2397753,6.71235963 L55.2397753,6.71235963 L55.4489562,5.51693843 L56.2159531,5.51693843 L56.4018918,4.84126557 L55.5651679,4.84126557 L55.7394854,3.84796872 L54.9027615,3.84796872 L54.728444,4.84126557 L54.2461657,4.84126557 L54.1241435,5.51693843 L54.6064218,5.51693843 L54.408862,6.63728487 C54.3817459,6.78358441 54.3681879,6.92795895 54.3681879,7.0704085 C54.3681879,7.42075739 54.4572835,7.68159406 54.6354747,7.85291852 C54.8136659,8.02424297 55.0518998,8.1099052 55.3501763,8.1099052 Z M57.4652283,8.01750549 L57.8138633,6.06556169 C57.9726859,5.90001221 58.1266663,5.77200012 58.2758046,5.6815254 C58.4249429,5.59105069 58.5634284,5.54581333 58.6912612,5.54581333 C58.8307152,5.54581333 58.931432,5.58046322 58.9934115,5.649763 C59.0553911,5.71906278 59.0863808,5.82108746 59.0863808,5.95583703 C59.0863808,6.04053676 59.0786334,6.1233115 59.0631385,6.20416125 L59.0631385,6.20416125 L58.7377459,8.01750549 L59.6151438,8.01750549 L59.9637788,6.06556169 C59.9870211,5.92696212 59.9986423,5.79991253 59.9986423,5.68441289 C59.9986423,5.35716393 59.9105151,5.12038968 59.7342608,4.97409015 C59.5580065,4.82779061 59.3246147,4.75464084 59.0340856,4.75464084 C58.6467134,4.75464084 58.2690256,4.92981529 57.901022,5.28016418 L57.901022,5.28016418 L57.831295,4.84126557 L57.1514569,4.84126557 L56.593641,8.01750549 L57.4652283,8.01750549 Z M61.9742403,8.1099052 C62.4894453,8.1099052 62.9620393,7.97130564 63.3920224,7.69410652 L63.3920224,7.69410652 L63.1131145,7.12815832 C62.9930291,7.20900806 62.8303328,7.28889531 62.6250255,7.36782006 C62.4197183,7.4467448 62.2376534,7.48620718 62.0788308,7.48620718 C61.6759637,7.48620718 61.4396667,7.3206577 61.3699397,6.98955875 C62.0168513,6.96260884 62.5669197,6.84422172 63.0201452,6.63439738 C63.4733706,6.42457305 63.6999833,6.07326166 63.6999833,5.58046322 C63.6999833,5.31481407 63.5905507,5.10980222 63.3716854,4.96542767 C63.1528201,4.82105313 62.8787543,4.74886586 62.549488,4.74886586 C62.1776107,4.74886586 61.8357548,4.84030307 61.5239202,5.02317749 C61.2120856,5.20605191 60.9641674,5.45245113 60.7801656,5.76237515 C60.5961638,6.07229916 60.504163,6.4062856 60.504163,6.76433447 C60.504163,7.18783313 60.6310273,7.51796958 60.8847561,7.75474383 C61.1384849,7.99151808 61.5016463,8.1099052 61.9742403,8.1099052 Z M61.3757503,6.38896066 C61.4416036,6.0925116 61.5829944,5.84899987 61.7999228,5.65842548 C62.0168513,5.46785108 62.2608957,5.37256388 62.5320562,5.37256388 C62.6715102,5.37256388 62.7809428,5.40240129 62.8603541,5.4620761 C62.9397654,5.52175091 62.9794711,5.60356315 62.9794711,5.70751282 C62.9794711,5.93081211 62.8177432,6.09539909 62.4942874,6.20127375 C62.1708317,6.30714842 61.797986,6.36971072 61.3757503,6.38896066 Z M64.8272363,8.01750549 L65.0770913,6.63150989 L65.0770913,6.60840996 L65.1119548,6.41206059 C65.1700607,6.19646127 65.26303,6.00588687 65.3908628,5.8403374 C65.5186956,5.67478792 65.6678339,5.59201319 65.8382776,5.59201319 C65.9622367,5.59201319 66.084259,5.63051306 66.2043443,5.70751282 L66.2043443,5.70751282 L66.7272967,4.93366527 C66.6382011,4.88361543 66.5452318,4.84030307 66.4483888,4.80372819 C66.3515457,4.7671533 66.2411447,4.74886586 66.1171856,4.74886586 C65.791793,4.74886586 65.5090113,4.92211531 65.2688406,5.26861421 L65.2688406,5.26861421 L65.193303,4.84126557 L64.5541389,4.84126557 L63.996323,8.01750549 L64.8272363,8.01750549 Z M68.1973741,8.08103029 C68.4879032,8.08103029 68.7358214,8.03675543 68.9411286,7.94820571 C69.1464359,7.859656 69.3013848,7.73838138 69.4059752,7.58438187 C69.5105657,7.43038236 69.562861,7.2590579 69.562861,7.0704085 C69.562861,6.88560908 69.5154079,6.72872208 69.4205017,6.59974749 C69.3255955,6.4707729 69.2122892,6.36778573 69.0805826,6.29078597 C68.9488761,6.21378622 68.7861798,6.13486147 68.5924937,6.05401172 C68.4143025,5.97316198 68.2874381,5.90867468 68.2119006,5.86054984 C68.136363,5.81242499 68.0985942,5.75371267 68.0985942,5.68441289 C68.0985942,5.61126313 68.1353946,5.55255081 68.2089953,5.50827595 C68.282596,5.46400109 68.379439,5.44186366 68.4995244,5.44186366 C68.6234835,5.44186366 68.7474426,5.46592609 68.8714017,5.51405093 C68.9953608,5.56217578 69.0999512,5.62858807 69.1851731,5.7132878 L69.7894737,5.19353945 C69.6500197,5.04723991 69.4757022,4.93655277 69.2665213,4.861478 C69.0573403,4.78640324 68.8307276,4.74886586 68.5866831,4.74886586 C68.3155226,4.74886586 68.0753519,4.79506571 67.8661709,4.88746542 C67.6569899,4.97986513 67.4952621,5.09921475 67.3809873,5.24551429 C67.2667125,5.39181382 67.2095751,5.54581333 67.2095751,5.70751282 C67.2095751,5.89616222 67.2560597,6.05304922 67.3490291,6.17817383 C67.4419984,6.30329843 67.5523994,6.40147312 67.6802323,6.47269789 C67.8080651,6.54392267 67.9707614,6.61995993 68.1683212,6.70080967 C68.3426387,6.77010945 68.4704715,6.83074676 68.5518196,6.88272159 C68.6331678,6.93469643 68.6738419,6.99918372 68.6738419,7.07618348 C68.6738419,7.1647332 68.6351046,7.23499548 68.5576302,7.28697031 C68.4801558,7.33894515 68.3620073,7.36493256 68.2031847,7.36493256 C68.0327409,7.36493256 67.8710131,7.32739518 67.718001,7.25232042 C67.564989,7.17724566 67.4303772,7.07810847 67.3141656,6.95490886 L66.7156756,7.44578231 C66.8667507,7.64598167 67.0769001,7.80190618 67.3461238,7.91355582 C67.6153474,8.02520547 67.8990975,8.08103029 68.1973741,8.08103029 Z" id="partners" fill="#5955D9"></path>
                    <g id="Recurso-3">
                        <path d="M0.878308668,3.16376377 L0.878308668,1.7881317 C0.879036092,1.28557747 1.28721696,0.878357645 1.79095722,0.877631934 L3.16983579,0.877631934 L3.16983579,2.72234926 L4.04814446,2.72234926 L4.04814446,0.00139120224 L1.79095722,0.00139120224 C0.802140736,0.00211789746 0.000728410232,0.801643336 0,1.7881317 L0,4.0400045 L6.33967159,4.0400045 L6.33967159,5.41563656 C6.33894416,5.9181908 5.93076329,6.32541062 5.42702303,6.32613633 L4.04814446,6.32613633 L4.04814446,4.481419 L3.16983579,4.481419 L3.16983579,7.20105941 L5.42702303,7.20105941 C6.41480874,7.19960807 7.21520472,6.40109658 7.21665949,5.41563656 L7.21665949,3.16376377 L0.878308668,3.16376377 Z" id="Path" fill="url(#linearGradient-1)"></path>
                        <path d="M10.0483795,0.573253574 C9.73932048,0.954495156 9.58435073,1.5065927 9.58347022,2.22954621 L9.58347022,2.61298388 L9.0155413,2.61298388 L9.0155413,3.86475635 L9.58347022,3.86475635 L9.58347022,7.20105941 L11.005934,7.20105941 L11.005934,3.86475635 L12.1510372,3.86475635 L12.1510372,2.61298388 L11.005934,2.61298388 L11.005934,2.10963958 C11.005934,1.49824755 11.2238602,1.18728091 11.6583919,1.18728091 C11.8765721,1.19943829 12.0912331,1.24752312 12.2936798,1.32958768 L12.3016044,0.18718059 C11.9858518,0.0692458761 11.6521114,0.0063990105 11.314993,0.00139120224 C10.8257402,-0.0193539145 10.3556739,0.192875968 10.0483795,0.573253574 Z" id="Path" fill="#421B9B"></path>
                        <rect id="Rectangle" fill="#421B9B" x="12.8629295" y="2.61298388" width="1.44623758" height="4.58939319"></rect>
                        <path d="M13.5827464,0.0185207203 C13.3775574,0.00954988251 13.1782397,0.0881309646 13.0346289,0.234616179 C12.8927262,0.395126574 12.8192684,0.60457929 12.8299104,0.818337448 C12.8228445,1.03359602 12.8995157,1.24323721 13.0438743,1.40337637 C13.1858816,1.55373289 13.3843019,1.63820313 13.5913693,1.63645246 C13.7984366,1.63470178 13.9953935,1.54688877 14.1348261,1.39415279 C14.2732394,1.23448869 14.3475681,1.02939273 14.343507,0.818337448 C14.3520089,0.604910736 14.2761158,0.396696132 14.1321846,0.238569145 C13.9885738,0.0908513087 13.7888749,0.010872472 13.5827464,0.0185207203 Z" id="Path" fill="#421B9B"></path>
                        <path d="M18.1539137,2.48780663 C17.6194442,2.48780663 17.1351637,2.72147083 16.7010723,3.18879922 L16.4672969,2.61298388 L15.3129484,2.61298388 L15.3129484,7.20105941 L16.8106958,7.20105941 L16.8106958,4.37337127 C16.9656612,4.21561241 17.1438056,4.08231868 17.3390018,3.9780747 C17.4767772,3.89972015 17.6310112,3.85459675 17.7893826,3.84630918 C17.9556659,3.82878118 18.1176497,3.90626879 18.2080651,4.04659278 C18.2967584,4.22789591 18.3372369,4.42890436 18.3256132,4.63031404 L18.3084432,7.20764769 L19.8220398,7.20764769 L19.8220398,4.34965348 C19.8220398,3.69346117 19.6675103,3.21910529 19.3584513,2.92658583 C19.0308826,2.62719341 18.5977846,2.46942799 18.1539137,2.48780663 Z" id="Path" fill="#421B9B"></path>
                        <path d="M22.5428156,5.9914519 C22.4304684,5.9994219 22.3198839,5.9602592 22.2377189,5.88340417 C22.1584321,5.78156567 22.1211106,5.65336908 22.1333784,5.52500195 L22.1333784,0.218804316 L20.680537,0.218804316 L20.680537,5.69102651 C20.680537,6.24707702 20.7848775,6.65423249 21.0107283,6.9098576 C21.2482256,7.17064847 21.5904709,7.31138348 21.9431883,7.29329528 C22.2927198,7.28449846 22.6379276,7.21401348 22.9628188,7.08510575 L22.7462133,5.96641645 C22.6795753,5.98237574 22.6113434,5.99077413 22.5428156,5.9914519 L22.5428156,5.9914519 Z" id="Path" fill="#421B9B"></path>
                        <path d="M27.0320955,2.77900844 C26.6374024,2.57631075 26.1987887,2.47359009 25.7549158,2.4799007 C25.3080186,2.47256932 24.8660488,2.57387 24.46717,2.77505547 C24.094267,2.96706949 23.7850815,3.2627127 23.5769745,3.62626076 C23.356069,4.01937415 23.2447877,4.46436137 23.2547078,4.91492758 C23.2431652,5.36241376 23.3536374,5.8046285 23.574333,6.19437081 C23.7839359,6.55476385 24.0929286,6.84747855 24.4645285,7.03767016 C24.8637475,7.24079271 25.3068403,7.34304778 25.7549158,7.33546024 C26.2448819,7.35193773 26.7296009,7.2304725 27.1536059,6.98496395 C27.5125538,6.76945221 27.8014878,6.45511847 27.9856878,6.0797348 C28.1613033,5.71653118 28.2516416,5.31817614 28.2498407,4.91492758 C28.2593083,4.46683508 28.1465479,4.02459792 27.9236118,3.63548434 C27.713822,3.27145809 27.4046349,2.97442339 27.0320955,2.77900844 L27.0320955,2.77900844 Z M26.5037895,5.72528555 C26.3155805,5.94622852 26.0396081,6.07356453 25.7489724,6.07356453 C25.4583367,6.07356453 25.1823642,5.94622852 24.9941552,5.72528555 C24.8268964,5.48706753 24.7403562,5.20174173 24.7471722,4.91097461 C24.7406006,4.61676978 24.8275176,4.32803592 24.995476,4.08612243 C25.1829372,3.863932 25.4591856,3.7356751 25.7502931,3.7356751 C26.0414007,3.7356751 26.3176491,3.863932 26.5051103,4.08612243 C26.675008,4.3272333 26.7629595,4.61632827 26.7560556,4.91097461 C26.7622766,5.20225988 26.674283,5.48779693 26.5051103,5.72528555 L26.5037895,5.72528555 Z" id="Shape" fill="#421B9B"></path>
                        <path d="M32.4802508,2.77900844 C32.0847663,2.57588909 31.6451932,2.47315623 31.2004296,2.4799007 C30.7535324,2.47256932 30.3115625,2.57387 29.9126838,2.77505547 C29.5397807,2.96706949 29.2305953,3.2627127 29.0224882,3.62626076 C28.8021836,4.01961177 28.6909438,4.4644332 28.7002216,4.91492758 C28.6901435,5.3625853 28.8014892,5.80464311 29.0224882,6.19437081 C29.2320912,6.55476385 29.5410838,6.84747855 29.9126838,7.03767016 C30.3112268,7.23991622 30.7533548,7.34170554 31.2004296,7.33414259 C31.6911805,7.35173294 32.1769337,7.23069474 32.6017611,6.98496395 C32.9609981,6.76980511 33.2500204,6.45537517 33.433843,6.0797348 C33.6094146,5.71651584 33.6997505,5.31817108 33.697996,4.91492758 C33.7068027,4.46691082 33.5940864,4.0248464 33.3717671,3.63548434 C33.1614598,3.27186162 32.8524055,2.97495453 32.4802508,2.77900844 Z M31.9519448,5.72528555 C31.7637358,5.94622852 31.4877633,6.07356453 31.1971277,6.07356453 C30.906492,6.07356453 30.6305195,5.94622852 30.4423105,5.72528555 C30.2760219,5.48666591 30.189999,5.20152095 30.1966482,4.91097461 C30.1902309,4.61698718 30.276633,4.32842877 30.4436313,4.08612243 C30.6310925,3.863932 30.9073409,3.7356751 31.1984484,3.7356751 C31.489556,3.7356751 31.7658043,3.863932 31.9532656,4.08612243 C32.1231632,4.3272333 32.2111148,4.61632827 32.2042109,4.91097461 C32.2104319,5.20225988 32.1224382,5.48779693 31.9532656,5.72528555 L31.9519448,5.72528555 Z" id="Shape" fill="#421B9B"></path>
                        <path d="M39.1157737,3.65524917 C38.9533045,3.30369394 38.6952187,3.00467232 38.3708623,2.79218499 C38.0406262,2.58093295 37.654959,2.47224652 37.2627405,2.4799007 C36.6416696,2.45473647 36.0535109,2.75889685 35.7161248,3.27971743 L35.4519718,2.61298388 L34.3953599,2.61298388 L34.3953599,9.70460436 L35.8165029,9.70460436 L35.8165029,6.73460946 C36.1458137,7.13517665 36.6111632,7.33546024 37.2125515,7.33546024 C37.6198703,7.34642068 38.0213894,7.23733998 38.3669,7.0218583 C38.6921227,6.81207827 38.9505538,6.51402801 39.1118114,6.16274708 C39.292301,5.77175223 39.3825684,5.34534231 39.3759644,4.91492758 C39.3848741,4.48089498 39.2959556,4.05040797 39.1157737,3.65524917 L39.1157737,3.65524917 Z M37.6272716,5.73319148 C37.4286736,5.93437935 37.157471,6.04766612 36.8744356,6.04766612 C36.5914003,6.04766612 36.3201976,5.93437935 36.1215996,5.73319148 C35.9164931,5.5065246 35.8096539,5.2080793 35.8244275,4.90306868 C35.8138681,4.60336847 35.9187949,4.31101979 36.1176373,4.08612243 C36.3097676,3.87618872 36.5843568,3.76064169 36.8691526,3.76988518 C37.1557684,3.76117557 37.4321713,3.87647263 37.6272716,4.08612243 C37.8296802,4.31273815 37.9357801,4.60902378 37.923123,4.91229226 C37.9349521,5.2138487 37.8288708,5.50819262 37.6272716,5.73319148 Z" id="Shape" fill="#421B9B"></path>
                    </g>
                </g>
                <g id="EXCLUSIVO-PARA" transform="translate(29.776006, 7.379616)" fill="#5955D9" fill-rule="nonzero">
                    <polygon id="Path" points="0 3.87038352 0 0.0522017045 2.30433239 0.0522017045 2.30433239 0.462357955 0.462357955 0.462357955 0.462357955 1.7524858 2.1850142 1.7524858 2.1850142 2.16264205 0.462357955 2.16264205 0.462357955 3.46022727 2.33416193 3.46022727 2.33416193 3.87038352"></polygon>
                    <polygon id="Path" points="3.36328125 0.0522017045 4.34765625 1.640625 4.3774858 1.640625 5.3618608 0.0522017045 5.90625 0.0522017045 4.7056108 1.96129261 5.90625 3.87038352 5.3618608 3.87038352 4.3774858 2.31178977 4.34765625 2.31178977 3.36328125 3.87038352 2.81889205 3.87038352 4.0493608 1.96129261 2.81889205 0.0522017045"></polygon>
                    <path d="M9.58274148,1.24538352 L9.12038352,1.24538352 C9.09303977,1.11239347 9.04549893,0.99556108 8.97776101,0.894886364 C8.91002308,0.794211648 8.82799183,0.709383878 8.73166726,0.640403054 C8.63534268,0.57142223 8.5287642,0.51953125 8.41193182,0.484730114 C8.29509943,0.449928977 8.17329545,0.432528409 8.04651989,0.432528409 C7.81534091,0.432528409 7.60622337,0.490944602 7.41916726,0.607776989 C7.23211115,0.724609375 7.08358487,0.89675071 6.97358842,1.12420099 C6.86359197,1.35165128 6.80859375,1.63068182 6.80859375,1.96129261 C6.80859375,2.29190341 6.86359197,2.57093395 6.97358842,2.79838423 C7.08358487,3.02583452 7.23211115,3.19797585 7.41916726,3.31480824 C7.60622337,3.43164062 7.81534091,3.49005682 8.04651989,3.49005682 C8.17329545,3.49005682 8.29509943,3.47265625 8.41193182,3.43785511 C8.5287642,3.40305398 8.63534268,3.351163 8.73166726,3.28218217 C8.82799183,3.21320135 8.91002308,3.12806286 8.97776101,3.02676669 C9.04549893,2.92547053 9.09303977,2.80894886 9.12038352,2.6772017 L9.58274148,2.6772017 C9.54794034,2.87233665 9.48455256,3.04696378 9.39257813,3.2010831 C9.30060369,3.35520241 9.1862571,3.4860174 9.04953835,3.59352805 C8.9128196,3.70103871 8.75963246,3.78275923 8.58997692,3.83868963 C8.42032138,3.89462003 8.23916903,3.92258523 8.04651989,3.92258523 C7.72088068,3.92258523 7.43128551,3.84303977 7.17773438,3.68394886 C6.92418324,3.52485795 6.72469815,3.29865057 6.57927912,3.0053267 C6.43386009,2.71200284 6.36115057,2.36399148 6.36115057,1.96129261 C6.36115057,1.55859375 6.43386009,1.21058239 6.57927912,0.917258523 C6.72469815,0.623934659 6.92418324,0.397727273 7.17773438,0.238636364 C7.43128551,0.0795454545 7.72088068,0 8.04651989,0 C8.23916903,0 8.42032138,0.0279651989 8.58997692,0.0838955966 C8.75963246,0.139825994 8.9128196,0.22154652 9.04953835,0.329057173 C9.1862571,0.436567827 9.30060369,0.567072088 9.39257813,0.720569957 C9.48455256,0.874067827 9.54794034,1.04900568 9.58274148,1.24538352 Z" id="Path"></path>
                    <polygon id="Path" points="10.3284801 3.87038352 10.3284801 0.0522017045 10.7908381 0.0522017045 10.7908381 3.46022727 12.565696 3.46022727 12.565696 3.87038352"></polygon>
                    <path d="M15.7872869,0.0522017045 L16.2496449,0.0522017045 L16.2496449,2.58025568 C16.2496449,2.8412642 16.1884322,3.0739968 16.0660067,3.27845348 C15.9435813,3.48291016 15.7711293,3.64386541 15.5486506,3.76131925 C15.3261719,3.87877308 15.0651634,3.9375 14.765625,3.9375 C14.4660866,3.9375 14.2050781,3.87877308 13.9825994,3.76131925 C13.7601207,3.64386541 13.5876687,3.48291016 13.4652433,3.27845348 C13.3428178,3.0739968 13.2816051,2.8412642 13.2816051,2.58025568 L13.2816051,0.0522017045 L13.7439631,0.0522017045 L13.7439631,2.54296875 C13.7439631,2.72940341 13.7849787,2.89501953 13.8670099,3.03981712 C13.9490412,3.1846147 14.0661843,3.29833984 14.2184393,3.38099254 C14.3706942,3.46364524 14.5530895,3.50497159 14.765625,3.50497159 C14.9781605,3.50497159 15.1608665,3.46364524 15.3137429,3.38099254 C15.4666193,3.29833984 15.5837624,3.1846147 15.6651722,3.03981712 C15.746582,2.89501953 15.7872869,2.72940341 15.7872869,2.54296875 L15.7872869,0.0522017045 Z" id="Path"></path>
                    <path d="M19.262429,1.00674716 C19.2400568,0.817826705 19.1493253,0.671164773 18.9902344,0.566761364 C18.8311435,0.462357955 18.6360085,0.41015625 18.4048295,0.41015625 C18.2357955,0.41015625 18.0882013,0.4375 17.9620472,0.4921875 C17.8358931,0.546875 17.7377042,0.622070313 17.6674805,0.717773437 C17.5972567,0.813476562 17.5621449,0.922230114 17.5621449,1.04403409 C17.5621449,1.1459517 17.5866921,1.23326527 17.6357866,1.30597479 C17.684881,1.3786843 17.7479581,1.43896484 17.8250178,1.48681641 C17.9020774,1.53466797 17.9828658,1.57381925 18.0673828,1.60427024 C18.1518999,1.63472124 18.229581,1.65926847 18.3004261,1.67791193 L18.6882102,1.78231534 C18.787642,1.80841619 18.8985707,1.84446023 19.0209961,1.89044744 C19.1434215,1.93643466 19.2608754,1.99889027 19.3733576,2.07781428 C19.4858398,2.15673828 19.5787464,2.25772372 19.6520774,2.3807706 C19.7254084,2.50381747 19.7620739,2.65482955 19.7620739,2.83380682 C19.7620739,3.04012784 19.7083185,3.2265625 19.6008079,3.3931108 C19.4932972,3.55965909 19.3366921,3.6920277 19.1309925,3.79021662 C18.925293,3.88840554 18.6757813,3.9375 18.3824574,3.9375 C18.1090199,3.9375 17.8725586,3.89337713 17.6730735,3.80513139 C17.4735884,3.71688565 17.3169833,3.59383878 17.2032582,3.43599077 C17.089533,3.27814276 17.0252131,3.09481534 17.0102983,2.88600852 L17.487571,2.88600852 C17.5,3.03018466 17.5487837,3.14919212 17.6339222,3.24303089 C17.7190607,3.33686967 17.8271928,3.40647195 17.9583185,3.45183771 C18.0894442,3.49720348 18.2308239,3.51988636 18.3824574,3.51988636 C18.5589489,3.51988636 18.7174183,3.49098899 18.8578658,3.43319425 C18.9983132,3.3753995 19.1095526,3.29461115 19.1915838,3.19082919 C19.2736151,3.08704723 19.3146307,2.96555398 19.3146307,2.82634943 C19.3146307,2.69957386 19.2792081,2.59641335 19.2083629,2.5168679 C19.1375178,2.43732244 19.0443004,2.37269176 18.9287109,2.32297585 C18.8131214,2.27325994 18.6882102,2.22975852 18.5539773,2.19247159 L18.0841619,2.05823864 C17.7858665,1.97247869 17.5497159,1.85005327 17.3757102,1.69096236 C17.2017045,1.53187145 17.1147017,1.32368608 17.1147017,1.06640625 C17.1147017,0.852627841 17.1728072,0.665882457 17.2890181,0.506170099 C17.405229,0.346457741 17.5618342,0.222167969 17.7588335,0.133300781 C17.9558327,0.0444335937 18.1761364,0 18.4197443,0 C18.6658381,0 18.8845881,0.0438121449 19.0759943,0.131436435 C19.2674006,0.219060724 19.4193448,0.338689631 19.5318271,0.490323153 C19.6443093,0.641956676 19.7036577,0.814098011 19.7098722,1.00674716 L19.262429,1.00674716 Z" id="Path"></path>
                    <polygon id="Path" points="20.9850852 0.0522017045 20.9850852 3.87038352 20.5227273 3.87038352 20.5227273 0.0522017045"></polygon>
                    <polygon id="Path" points="22.0664063 0.0522017045 23.199929 3.26633523 23.2446733 3.26633523 24.378196 0.0522017045 24.8629261 0.0522017045 23.4609375 3.87038352 22.9836648 3.87038352 21.5816761 0.0522017045"></polygon>
                    <path d="M28.681108,1.96129261 C28.681108,2.36399148 28.6083984,2.71200284 28.4629794,3.0053267 C28.3175604,3.29865057 28.1180753,3.52485795 27.8645241,3.68394886 C27.610973,3.84303977 27.3213778,3.92258523 26.9957386,3.92258523 C26.6700994,3.92258523 26.3805043,3.84303977 26.1269531,3.68394886 C25.873402,3.52485795 25.6739169,3.29865057 25.5284979,3.0053267 C25.3830788,2.71200284 25.3103693,2.36399148 25.3103693,1.96129261 C25.3103693,1.55859375 25.3830788,1.21058239 25.5284979,0.917258523 C25.6739169,0.623934659 25.873402,0.397727273 26.1269531,0.238636364 C26.3805043,0.0795454545 26.6700994,0 26.9957386,0 C27.3213778,0 27.610973,0.0795454545 27.8645241,0.238636364 C28.1180753,0.397727273 28.3175604,0.623934659 28.4629794,0.917258523 C28.6083984,1.21058239 28.681108,1.55859375 28.681108,1.96129261 Z M28.2336648,1.96129261 C28.2336648,1.63068182 28.1786665,1.35165128 28.0686701,1.12420099 C27.9586737,0.89675071 27.8101474,0.724609375 27.6230913,0.607776989 C27.4360352,0.490944602 27.2269176,0.432528409 26.9957386,0.432528409 C26.7645597,0.432528409 26.5554421,0.490944602 26.368386,0.607776989 C26.1813299,0.724609375 26.0328036,0.89675071 25.9228072,1.12420099 C25.8128107,1.35165128 25.7578125,1.63068182 25.7578125,1.96129261 C25.7578125,2.29190341 25.8128107,2.57093395 25.9228072,2.79838423 C26.0328036,3.02583452 26.1813299,3.19797585 26.368386,3.31480824 C26.5554421,3.43164062 26.7645597,3.49005682 26.9957386,3.49005682 C27.2269176,3.49005682 27.4360352,3.43164062 27.6230913,3.31480824 C27.8101474,3.19797585 27.9586737,3.02583452 28.0686701,2.79838423 C28.1786665,2.57093395 28.2336648,2.29190341 28.2336648,1.96129261 Z" id="Shape"></path>
                    <path d="M30.9332386,3.87038352 L30.9332386,0.0522017045 L32.2233665,0.0522017045 C32.5229048,0.0522017045 32.7680664,0.105957031 32.9588512,0.213467685 C33.149636,0.320978338 33.2910156,0.466086648 33.3829901,0.648792614 C33.4749645,0.83149858 33.5209517,1.03533381 33.5209517,1.2602983 C33.5209517,1.48526278 33.4752752,1.68971946 33.3839222,1.87366832 C33.2925692,2.05761719 33.1518111,2.20396839 32.9616477,2.31272195 C32.7714844,2.4214755 32.5278764,2.47585227 32.2308239,2.47585227 L31.306108,2.47585227 L31.306108,2.06569602 L32.2159091,2.06569602 C32.4209872,2.06569602 32.5856712,2.03027344 32.7099609,1.95942827 C32.8342507,1.8885831 32.9246715,1.79256925 32.9812234,1.67138672 C33.0377752,1.55020419 33.0660511,1.41317472 33.0660511,1.2602983 C33.0660511,1.10742187 33.0377752,0.970703125 32.9812234,0.850142045 C32.9246715,0.729580966 32.8336293,0.634810014 32.7080966,0.56582919 C32.5825639,0.496848366 32.4160156,0.462357955 32.2084517,0.462357955 L31.3955966,0.462357955 L31.3955966,3.87038352 L30.9332386,3.87038352 Z" id="Path"></path>
                    <path d="M34.4232955,3.87038352 L33.9385653,3.87038352 L35.340554,0.0522017045 L35.8178267,0.0522017045 L37.2198153,3.87038352 L36.7350852,3.87038352 L35.5941051,0.65625 L35.5642756,0.65625 L34.4232955,3.87038352 Z M34.6022727,2.37890625 L36.556108,2.37890625 L36.556108,2.7890625 L34.6022727,2.7890625 L34.6022727,2.37890625 Z" id="Shape"></path>
                    <path d="M37.8164062,3.87038352 L37.8164062,0.0522017045 L39.1065341,0.0522017045 C39.4048295,0.0522017045 39.6496804,0.102849787 39.8410866,0.204145952 C40.0324929,0.305442116 40.1741832,0.444335937 40.2661577,0.620827415 C40.3581321,0.797318892 40.4041193,0.998046875 40.4041193,1.22301136 C40.4041193,1.44797585 40.3581321,1.64746094 40.2661577,1.82146662 C40.1741832,1.9954723 40.0331143,2.13188033 39.842951,2.2306907 C39.6527876,2.32950107 39.4098011,2.37890625 39.1139915,2.37890625 L38.0699574,2.37890625 L38.0699574,1.96129261 L39.0990767,1.96129261 C39.3029119,1.96129261 39.4672852,1.93146307 39.5921964,1.87180398 C39.7171076,1.81214489 39.8078391,1.72731712 39.864391,1.61732067 C39.9209428,1.50732422 39.9492187,1.37588778 39.9492187,1.22301136 C39.9492187,1.07013494 39.9206321,0.936523437 39.8634588,0.822176847 C39.8062855,0.707830256 39.7149325,0.619273793 39.5893999,0.556507457 C39.4638672,0.493741122 39.2979403,0.462357955 39.0916193,0.462357955 L38.2787642,0.462357955 L38.2787642,3.87038352 L37.8164062,3.87038352 Z M39.6136364,2.15518466 L40.553267,3.87038352 L40.0163352,3.87038352 L39.0916193,2.15518466 L39.6136364,2.15518466 Z" id="Shape"></path>
                    <path d="M41.3288352,3.87038352 L40.8441051,3.87038352 L42.2460938,0.0522017045 L42.7233665,0.0522017045 L44.1253551,3.87038352 L43.640625,3.87038352 L42.4996449,0.65625 L42.4698153,0.65625 L41.3288352,3.87038352 Z M41.5078125,2.37890625 L43.4616477,2.37890625 L43.4616477,2.7890625 L41.5078125,2.7890625 L41.5078125,2.37890625 Z" id="Shape"></path>
                </g>
            </g>
        </g>
    </g>
</svg>